Data Processing and Visualization in R – Validating data
…
Set up

Import dog breed traits data

(mydf <- readr::read_csv(here::here("data/dog_breed_traits.csv")))

# A tibble: 195 × 17
   Breed    Affectionate With Fa…¹ Good With Young Chil…² `Good With Other Dogs`
   <chr>                     <dbl>                  <dbl>                  <dbl>
 1 Retriev…                      5                      5                      5
 2 French …                      5                      5                      4
 3 German …                      5                      5                      3
 4 Retriev…                      5                      5                      5
 5 Bulldogs                      4                      3                      3
 6 Poodles                       5                      5                      3
 7 Beagles                       3                      5                      5
 8 Rottwei…                      5                      3                      3
 9 Pointer…                      5                      5                      4
10 Dachshu…                      5                      3                      4
# ℹ 185 more rows
# ℹ abbreviated names: ¹​`Affectionate With Family`, ²​`Good With Young Children`
# ℹ 13 more variables: `Shedding Level` <dbl>, `Coat Grooming Frequency` <dbl>,
#   `Drooling Level` <dbl>, `Coat Type` <chr>, `Coat Length` <chr>,
#   `Openness To Strangers` <dbl>, `Playfulness Level` <dbl>,
#   `Watchdog/Protective Nature` <dbl>, `Adaptability Level` <dbl>,
#   `Trainability Level` <dbl>, `Energy Level` <dbl>, `Barking Level` <dbl>, …
…
