Data Processing and Visualization in R – Summarizing rows
…
Set-up

library(dplyr)
library(nycflights13)
(flights2 <- select(flights, year:dep_delay, carrier))

# A tibble: 336,776 × 7
    year month   day dep_time sched_dep_time dep_delay carrier
   <int> <int> <int>    <int>          <int>     <dbl> <chr>  
 1  2013     1     1      517            515         2 UA     
 2  2013     1     1      533            529         4 UA     
 3  2013     1     1      542            540         2 AA     
 4  2013     1     1      544            545        -1 B6     
 5  2013     1     1      554            600        -6 DL     
 6  2013     1     1      554            558        -4 UA     
 7  2013     1     1      555            600        -5 B6     
 8  2013     1     1      557            600        -3 EV     
 9  2013     1     1      557            600        -3 B6     
10  2013     1     1      558            600        -2 AA     
# ℹ 336,766 more rows
…
count()

flights2 |> 
  count(carrier, month)

# A tibble: 185 × 3
   carrier month     n
   <chr>   <int> <int>
 1 9E          1  1573
 2 9E          2  1459
 3 9E          3  1627
 4 9E          4  1511
 5 9E          5  1462
 6 9E          6  1437
 7 9E          7  1494
 8 9E          8  1456
 9 9E          9  1540
10 9E         10  1673
# ℹ 175 more rows
…
# A tibble: 1 × 4
  dep_time_mean dep_time_sd sched_dep_time_mean sched_dep_time_sd
          <dbl>       <dbl>               <dbl>             <dbl>
1         1349.        488.               1344.              467.

Grouping data

group_by()

flights2 |> 
  group_by(month)

# A tibble: 336,776 × 7
# Groups:   month [12]
    year month   day dep_time sched_dep_time dep_delay carrier
   <int> <int> <int>    <int>          <int>     <dbl> <chr>  
 1  2013     1     1      517            515         2 UA     
 2  2013     1     1      533            529         4 UA     
 3  2013     1     1      542            540         2 AA     
 4  2013     1     1      544            545        -1 B6     
 5  2013     1     1      554            600        -6 DL     
 6  2013     1     1      554            558        -4 UA     
 7  2013     1     1      555            600        -5 B6     
 8  2013     1     1      557            600        -3 EV     
 9  2013     1     1      557            600        -3 B6     
10  2013     1     1      558            600        -2 AA     
# ℹ 336,766 more rows
…
Summarizing multiple groups

group_by() + summarise()

flights2 |> 
  group_by(carrier, month) |> 
  summarise(carrier_n = n(),
            mean_carrier_delay = mean(dep_delay, na.rm = TRUE), 
            sd_carrier_delay = sd(dep_delay, na.rm = TRUE))

# A tibble: 185 × 5
# Groups:   carrier [16]
   carrier month carrier_n mean_carrier_delay sd_carrier_delay
   <chr>   <int>     <int>              <dbl>            <dbl>
 1 9E          1      1573              16.9              47.6
 2 9E          2      1459              16.5              50.5
 3 9E          3      1627              13.4              43.0
 4 9E          4      1511              13.6              43.8
 5 9E          5      1462              22.7              50.6
 6 9E          6      1437              29.0              55.4
 7 9E          7      1494              31.4              60.4
 8 9E          8      1456              17.3              42.8
 9 9E          9      1540               7.75             34.3
10 9E         10      1673               9.33             33.8
# ℹ 175 more rows
…
Summarizing multiple groups

summarise() with .by argument

flights2 |> 
  summarise(.by = c(carrier, month),
            carrier_n = n(),
            mean_carrier_delay = mean(dep_delay, na.rm = TRUE), 
            sd_carrier_delay = sd(dep_delay, na.rm = TRUE))

# A tibble: 185 × 5
   carrier month carrier_n mean_carrier_delay sd_carrier_delay
   <chr>   <int>     <int>              <dbl>            <dbl>
 1 UA          1      4637               8.33             29.0
 2 AA          1      2794               6.93             29.1
 3 B6          1      4427               9.49             31.6
 4 DL          1      3690               3.85             28.9
 5 EV          1      4171              24.2              47.7
 6 MQ          1      2271               6.49             41.2
 7 US          1      1602               1.82             22.0
 8 WN          1       996               9.14             31.0
 9 VX          1       316               1.06             18.5
10 FL          1       328               1.97             23.8
# ℹ 175 more rows

Ungrouping

Using group_by() adds a group attribute to the tibble

flights2 |> 
  group_by(month)

# A tibble: 336,776 × 7
# Groups:   month [12]
    year month   day dep_time sched_dep_time dep_delay carrier
   <int> <int> <int>    <int>          <int>     <dbl> <chr>  
 1  2013     1     1      517            515         2 UA     
 2  2013     1     1      533            529         4 UA     
 3  2013     1     1      542            540         2 AA     
 4  2013     1     1      544            545        -1 B6     
 5  2013     1     1      554            600        -6 DL     
 6  2013     1     1      554            558        -4 UA     
 7  2013     1     1      555            600        -5 B6     
 8  2013     1     1      557            600        -3 EV     
 9  2013     1     1      557            600        -3 B6     
10  2013     1     1      558            600        -2 AA     
# ℹ 336,766 more rows

Ungrouping

Remove groups with ungroup()

flights2 |> 
  group_by(month) |> 
  ungroup()

# A tibble: 336,776 × 7
    year month   day dep_time sched_dep_time dep_delay carrier
   <int> <int> <int>    <int>          <int>     <dbl> <chr>  
 1  2013     1     1      517            515         2 UA     
 2  2013     1     1      533            529         4 UA     
 3  2013     1     1      542            540         2 AA     
 4  2013     1     1      544            545        -1 B6     
 5  2013     1     1      554            600        -6 DL     
 6  2013     1     1      554            558        -4 UA     
 7  2013     1     1      555            600        -5 B6     
 8  2013     1     1      557            600        -3 EV     
 9  2013     1     1      557            600        -3 B6     
10  2013     1     1      558            600        -2 AA     
# ℹ 336,766 more rows

Ungrouping

rowwise() creates groups that can cause problems

flights2 |> 
  rowwise() |> 
  mutate(min_dep_time = min(dep_time, sched_dep_time)) |> 
  summarise(mean_min_dep_time = mean(min_dep_time, na.rm = TRUE))

# A tibble: 336,776 × 1
   mean_min_dep_time
               <dbl>
 1               515
 2               529
 3               540
 4               544
 5               554
 6               554
 7               555
 8               557
 9               557
10               558
# ℹ 336,766 more rows
…
slice_min() row(s) with smallest value in column x

slice_max() row(s) with largest value in column x

slice_sample() random row(s)

Slicing rows

Let’s say we want the first flight for each carrier on 2013-02-22.

flights2 |> 
  filter(month == 2 & day == 22 & dep_time > 10)

# A tibble: 938 × 7
    year month   day dep_time sched_dep_time dep_delay carrier
   <int> <int> <int>    <int>          <int>     <dbl> <chr>  
 1  2013     2    22      455            500        -5 US     
 2  2013     2    22      512            515        -3 UA     
 3  2013     2    22      530            530         0 UA     
 4  2013     2    22      536            545        -9 B6     
 5  2013     2    22      539            540        -1 AA     
 6  2013     2    22      551            600        -9 B6     
 7  2013     2    22      553            600        -7 DL     
 8  2013     2    22      553            600        -7 EV     
 9  2013     2    22      553            600        -7 B6     
10  2013     2    22      553            600        -7 US     
# ℹ 928 more rows
…
Slicing rows

What if we want the three most delayed flight for each carrier on 2013-02-22.

flights2 |> 
  filter(month == 2 & day == 22 & dep_time > 10) |> 
  group_by(carrier) |> 
  slice_max(dep_delay, n = 3) |> 
  arrange(carrier, dep_delay)

# A tibble: 43 × 7
# Groups:   carrier [15]
    year month   day dep_time sched_dep_time dep_delay carrier
   <int> <int> <int>    <int>          <int>     <dbl> <chr>  
 1  2013     2    22     1723           1540       103 9E     
 2  2013     2    22     2301           1945       196 9E     
 3  2013     2    22     2010           1550       260 9E     
 4  2013     2    22     2134           2015        79 AA     
 5  2013     2    22     2240           2045       115 AA     
 6  2013     2    22     2000           1700       180 AA     
 7  2013     2    22     1811           1815        -4 AS     
 8  2013     2    22      731            725         6 AS     
 9  2013     2    22     1955           1805       110 B6     
10  2013     2    22     1829           1600       149 B6     
# ℹ 33 more rows

Slicing rows

We can replace group_by() with by argument (not .by)

flights2 |> 
  filter(month == 2 & day == 22 & dep_time > 10) |> 
  slice_max(by = carrier,
            dep_delay, n = 3) |> 
  arrange(carrier, dep_delay)

# A tibble: 43 × 7
    year month   day dep_time sched_dep_time dep_delay carrier
   <int> <int> <int>    <int>          <int>     <dbl> <chr>  
 1  2013     2    22     1723           1540       103 9E     
 2  2013     2    22     2301           1945       196 9E     
 3  2013     2    22     2010           1550       260 9E     
 4  2013     2    22     2134           2015        79 AA     
 5  2013     2    22     2240           2045       115 AA     
 6  2013     2    22     2000           1700       180 AA     
 7  2013     2    22     1811           1815        -4 AS     
 8  2013     2    22      731            725         6 AS     
 9  2013     2    22     1955           1805       110 B6     
10  2013     2    22     1829           1600       149 B6     
# ℹ 33 more rows
…
