Data Processing and Visualization in R – Merging columns
…
Set-up

library(dplyr)
library(nycflights13)
(flights2 <- select(flights, year:dep_time, carrier, tailnum))

# A tibble: 336,776 × 6
    year month   day dep_time carrier tailnum
   <int> <int> <int>    <int> <chr>   <chr>  
 1  2013     1     1      517 UA      N14228 
 2  2013     1     1      533 UA      N24211 
 3  2013     1     1      542 AA      N619AA 
 4  2013     1     1      544 B6      N804JB 
 5  2013     1     1      554 DL      N668DN 
 6  2013     1     1      554 UA      N39463 
 7  2013     1     1      555 B6      N516JB 
 8  2013     1     1      557 EV      N829AS 
 9  2013     1     1      557 B6      N593JB 
10  2013     1     1      558 AA      N3ALAA 
# ℹ 336,766 more rows

Set-up

(planes2 <- select(planes, tailnum, year, model, seats))

# A tibble: 3,322 × 4
   tailnum  year model     seats
   <chr>   <int> <chr>     <int>
 1 N10156   2004 EMB-145XR    55
 2 N102UW   1998 A320-214    182
 3 N103US   1999 A320-214    182
 4 N104UW   1999 A320-214    182
 5 N10575   2002 EMB-145LR    55
 6 N105UW   1999 A320-214    182
 7 N107US   1999 A320-214    182
 8 N108UW   1999 A320-214    182
 9 N109UW   1999 A320-214    182
10 N110UW   1999 A320-214    182
# ℹ 3,312 more rows
…
glimpse(planes2)

Rows: 3,322
Columns: 4
$ tailnum <chr> "N10156", "N102UW", "N103US", "N104UW", "N10575", "N105UW", "N…
$ year    <int> 2004, 1998, 1999, 1999, 2002, 1999, 1999, 1999, 1999, 1999, 20…
$ model   <chr> "EMB-145XR", "A320-214", "A320-214", "A320-214", "EMB-145LR", …
$ seats   <int> 55, 182, 182, 182, 55, 182, 182, 182, 182, 182, 55, 55, 55, 55…

Inner joins

flights2 |>
  inner_join(planes2, by = "tailnum")

# A tibble: 284,170 × 9
   year.x month   day dep_time carrier tailnum year.y model       seats
    <int> <int> <int>    <int> <chr>   <chr>    <int> <chr>       <int>
 1   2013     1     1      517 UA      N14228    1999 737-824       149
 2   2013     1     1      533 UA      N24211    1998 737-824       149
 3   2013     1     1      542 AA      N619AA    1990 757-223       178
 4   2013     1     1      544 B6      N804JB    2012 A320-232      200
 5   2013     1     1      554 DL      N668DN    1991 757-232       178
 6   2013     1     1      554 UA      N39463    2012 737-924ER     191
 7   2013     1     1      555 B6      N516JB    2000 A320-232      200
 8   2013     1     1      557 EV      N829AS    1998 CL-600-2B19    55
 9   2013     1     1      557 B6      N593JB    2004 A320-232      200
10   2013     1     1      558 B6      N793JB    2011 A320-232      200
# ℹ 284,160 more rows
…
Left joins

flights2 |>
  left_join(planes2, by = "tailnum")

# A tibble: 336,776 × 9
   year.x month   day dep_time carrier tailnum year.y model       seats
    <int> <int> <int>    <int> <chr>   <chr>    <int> <chr>       <int>
 1   2013     1     1      517 UA      N14228    1999 737-824       149
 2   2013     1     1      533 UA      N24211    1998 737-824       149
 3   2013     1     1      542 AA      N619AA    1990 757-223       178
 4   2013     1     1      544 B6      N804JB    2012 A320-232      200
 5   2013     1     1      554 DL      N668DN    1991 757-232       178
 6   2013     1     1      554 UA      N39463    2012 737-924ER     191
 7   2013     1     1      555 B6      N516JB    2000 A320-232      200
 8   2013     1     1      557 EV      N829AS    1998 CL-600-2B19    55
 9   2013     1     1      557 B6      N593JB    2004 A320-232      200
10   2013     1     1      558 AA      N3ALAA      NA <NA>           NA
# ℹ 336,766 more rows

Warning

Select columns used to join with argument by

Inner joins

Otherwise, it uses all shared columns, which may be wrong

flights2 |>
  left_join(planes2)

# A tibble: 336,776 × 8
    year month   day dep_time carrier tailnum model seats
   <int> <int> <int>    <int> <chr>   <chr>   <chr> <int>
 1  2013     1     1      517 UA      N14228  <NA>     NA
 2  2013     1     1      533 UA      N24211  <NA>     NA
 3  2013     1     1      542 AA      N619AA  <NA>     NA
 4  2013     1     1      544 B6      N804JB  <NA>     NA
 5  2013     1     1      554 DL      N668DN  <NA>     NA
 6  2013     1     1      554 UA      N39463  <NA>     NA
 7  2013     1     1      555 B6      N516JB  <NA>     NA
 8  2013     1     1      557 EV      N829AS  <NA>     NA
 9  2013     1     1      557 B6      N593JB  <NA>     NA
10  2013     1     1      558 AA      N3ALAA  <NA>     NA
# ℹ 336,766 more rows
…
