Data Processing and Visualization in R – Merging rows
…
# A tibble: 4 × 2
     id  resp
  <int> <dbl>
1     1 0.489
2     4 0.148
3     7 0.952
4    10 0.462

Set-up

library(dplyr)
library(nycflights13)
(flights2 <- select(flights, year:dep_time, carrier, tailnum))

# A tibble: 336,776 × 6
    year month   day dep_time carrier tailnum
   <int> <int> <int>    <int> <chr>   <chr>  
 1  2013     1     1      517 UA      N14228 
 2  2013     1     1      533 UA      N24211 
 3  2013     1     1      542 AA      N619AA 
 4  2013     1     1      544 B6      N804JB 
 5  2013     1     1      554 DL      N668DN 
 6  2013     1     1      554 UA      N39463 
 7  2013     1     1      555 B6      N516JB 
 8  2013     1     1      557 EV      N829AS 
 9  2013     1     1      557 B6      N593JB 
10  2013     1     1      558 AA      N3ALAA 
# ℹ 336,766 more rows
…
Semi joins

flights2 |>
  semi_join(airlines2, by = "carrier")

# A tibble: 171,392 × 6
    year month   day dep_time carrier tailnum
   <int> <int> <int>    <int> <chr>   <chr>  
 1  2013     1     1      517 UA      N14228 
 2  2013     1     1      533 UA      N24211 
 3  2013     1     1      542 AA      N619AA 
 4  2013     1     1      544 B6      N804JB 
 5  2013     1     1      554 UA      N39463 
 6  2013     1     1      555 B6      N516JB 
 7  2013     1     1      557 B6      N593JB 
 8  2013     1     1      558 AA      N3ALAA 
 9  2013     1     1      558 B6      N793JB 
10  2013     1     1      558 B6      N657JB 
# ℹ 171,382 more rows
…
anti_join(x, y, by = "key")

# A tibble: 1 × 2
    key val_x
  <dbl> <chr>
1     3 x3   

Anti joins

flights2 |>
  anti_join(airlines2, by = "carrier")

# A tibble: 165,384 × 6
    year month   day dep_time carrier tailnum
   <int> <int> <int>    <int> <chr>   <chr>  
 1  2013     1     1      554 DL      N668DN 
 2  2013     1     1      557 EV      N829AS 
 3  2013     1     1      600 MQ      N542MQ 
 4  2013     1     1      602 DL      N971DL 
 5  2013     1     1      602 MQ      N730MQ 
 6  2013     1     1      606 DL      N3739P 
 7  2013     1     1      608 MQ      N9EAMQ 
 8  2013     1     1      615 DL      N326NB 
 9  2013     1     1      622 US      N807AW 
10  2013     1     1      624 EV      N11107 
# ℹ 165,374 more rows

Joining with different key names

flights2

# A tibble: 336,776 × 6
    year month   day dep_time carrier tailnum
   <int> <int> <int>    <int> <chr>   <chr>  
 1  2013     1     1      517 UA      N14228 
 2  2013     1     1      533 UA      N24211 
 3  2013     1     1      542 AA      N619AA 
 4  2013     1     1      544 B6      N804JB 
 5  2013     1     1      554 DL      N668DN 
 6  2013     1     1      554 UA      N39463 
 7  2013     1     1      555 B6      N516JB 
 8  2013     1     1      557 EV      N829AS 
 9  2013     1     1      557 B6      N593JB 
10  2013     1     1      558 AA      N3ALAA 
# ℹ 336,766 more rows
…
Joining with different key names

flights2 |>
  anti_join(airlines3, by = join_by(carrier == airline))

# A tibble: 165,384 × 6
    year month   day dep_time carrier tailnum
   <int> <int> <int>    <int> <chr>   <chr>  
 1  2013     1     1      554 DL      N668DN 
 2  2013     1     1      557 EV      N829AS 
 3  2013     1     1      600 MQ      N542MQ 
 4  2013     1     1      602 DL      N971DL 
 5  2013     1     1      602 MQ      N730MQ 
 6  2013     1     1      606 DL      N3739P 
 7  2013     1     1      608 MQ      N9EAMQ 
 8  2013     1     1      615 DL      N326NB 
 9  2013     1     1      622 US      N807AW 
10  2013     1     1      624 EV      N11107 
# ℹ 165,374 more rows
…
