Data Processing and Visualization in R – Numbers
…
n_distinct() counts instances within a group

flights |> 
  group_by(dest) |> 
  summarise(carriers = n_distinct(carrier))

# A tibble: 105 × 2
   dest  carriers
   <chr>    <int>
 1 ABQ          1
 2 ACK          1
 3 ALB          1
 4 ANC          1
 5 ATL          7
 6 AUS          6
 7 AVL          2
 8 BDL          2
 9 BGR          2
10 BHM          1
# ℹ 95 more rows

Counting NAs

To count NAs, you can sum() up TRUE responses to is.na()

flights |> 
  group_by(dest) |> 
  summarize(n_cancelled = sum(is.na(dep_time)))

# A tibble: 105 × 2
   dest  n_cancelled
   <chr>       <int>
 1 ABQ             0
 2 ACK             0
 3 ALB            20
 4 ANC             0
 5 ATL           317
 6 AUS            21
 7 AVL            12
 8 BDL            31
 9 BGR            15
10 BHM            25
# ℹ 95 more rows
…
