Data Processing and Visualization in R – Strings
…
# Negative numbers count backwards from end
str_sub(x, -3, -1)

[1] "ple" "ana" "ear"

Extracting strings

Useful when you don’t have delimiters. But use delimiters!

penguins |>
  mutate(species = str_sub(species, 1, 1),
         island = str_sub(island, 1, 3),
         year = str_sub(year, -2, -1), .keep = "used")

# A tibble: 344 × 3
   species island year 
   <chr>   <chr>  <chr>
 1 A       Tor    07   
 2 A       Tor    07   
 3 A       Tor    07   
 4 A       Tor    07   
 5 A       Tor    07   
 6 A       Tor    07   
 7 A       Tor    07   
 8 A       Tor    07   
 9 A       Tor    07   
10 A       Tor    07   
# ℹ 334 more rows
…
[1] "Sepal.Length" "Sepal.Width"  "Petal.Length" "Petal.Width"  "Species"     

str_to_lower(names(iris))

[1] "sepal.length" "sepal.width"  "petal.length" "petal.width"  "species"     

Changing case

Or to change case of column entries

penguins |>
  mutate(sex_upper = str_to_sentence(sex), .keep = "used")

# A tibble: 344 × 2
   sex    sex_upper
   <fct>  <chr>    
 1 male   Male     
 2 female Female   
 3 female Female   
 4 <NA>   <NA>     
 5 female Female   
 6 male   Male     
 7 female Female   
 8 male   Male     
 9 <NA>   <NA>     
10 <NA>   <NA>     
# ℹ 334 more rows
…
str_glue("My name is {name}, and my age next year is {age + 1}.", 
         name = "Jane", age = 40)

My name is Jane, and my age next year is 41.

Combining strings with output

Apply to each row of a data frame

penguins |>
  mutate(full_island = str_glue("{island} Island")) |> 
  arrange(bill_length_mm) |> 
  select(species, island, full_island)

# A tibble: 344 × 3
   species island    full_island     
   <fct>   <fct>     <glue>          
 1 Adelie  Dream     Dream Island    
 2 Adelie  Dream     Dream Island    
 3 Adelie  Torgersen Torgersen Island
 4 Adelie  Dream     Dream Island    
 5 Adelie  Torgersen Torgersen Island
 6 Adelie  Torgersen Torgersen Island
 7 Adelie  Biscoe    Biscoe Island   
 8 Adelie  Torgersen Torgersen Island
 9 Adelie  Torgersen Torgersen Island
10 Adelie  Biscoe    Biscoe Island   
# ℹ 334 more rows
…
