Data Processing and Visualization in R – Matching patterns
…
[1] 2

mean(str_detect(x, "e"), na.rm = TRUE)  # calculate proportion of matches

[1] 0.6666667

Extracting pattern matches

Extract observations matching pattern with filter() and str_detect()

penguins |>
  filter(str_detect(sex, "male")) |>  # select observations that include "male"
  select(species, island, sex)

# A tibble: 333 × 3
   species island    sex   
   <fct>   <fct>     <fct> 
 1 Adelie  Torgersen male  
 2 Adelie  Torgersen female
 3 Adelie  Torgersen female
 4 Adelie  Torgersen female
 5 Adelie  Torgersen male  
 6 Adelie  Torgersen female
 7 Adelie  Torgersen male  
 8 Adelie  Torgersen female
 9 Adelie  Torgersen male  
10 Adelie  Torgersen male  
# ℹ 323 more rows
…
