Data Processing and Visualization in R – Dates and times
…
[1] "2023-03-22 10:30:00 CDT"

Warning

Setting tz = Sys.timezone() is dangerous and not reproducible if you are traveling or giving code to others in different time zones.

Date/time components

Create dates from components

flights |>
  select(year, month, day, hour, minute)

# A tibble: 336,776 × 5
    year month   day  hour minute
   <int> <int> <int> <dbl>  <dbl>
 1  2013     1     1     5     15
 2  2013     1     1     5     29
 3  2013     1     1     5     40
 4  2013     1     1     5     45
 5  2013     1     1     6      0
 6  2013     1     1     5     58
 7  2013     1     1     6      0
 8  2013     1     1     6      0
 9  2013     1     1     6      0
10  2013     1     1     6      0
# ℹ 336,766 more rows

Create dates from components

make_date(), make_datetime()

flights |>
  select(year, month, day, hour, minute) |>
  mutate(date = make_date(year, month, day),
         departure = make_datetime(year, month, day, hour, minute))

# A tibble: 336,776 × 7
    year month   day  hour minute date       departure          
   <int> <int> <int> <dbl>  <dbl> <date>     <dttm>             
 1  2013     1     1     5     15 2013-01-01 2013-01-01 05:15:00
 2  2013     1     1     5     29 2013-01-01 2013-01-01 05:29:00
 3  2013     1     1     5     40 2013-01-01 2013-01-01 05:40:00
 4  2013     1     1     5     45 2013-01-01 2013-01-01 05:45:00
 5  2013     1     1     6      0 2013-01-01 2013-01-01 06:00:00
 6  2013     1     1     5     58 2013-01-01 2013-01-01 05:58:00
 7  2013     1     1     6      0 2013-01-01 2013-01-01 06:00:00
 8  2013     1     1     6      0 2013-01-01 2013-01-01 06:00:00
 9  2013     1     1     6      0 2013-01-01 2013-01-01 06:00:00
10  2013     1     1     6      0 2013-01-01 2013-01-01 06:00:00
# ℹ 336,766 more rows
…
