Merging rows – Data Processing and Visualization in R
…
set.seed(2)
ranks2 <- slice_sample(ranks, prop = 0.1) |> 
  arrange(breed)

Use a filtering join to return the subset of traits that matches the breeds in ranks2 and assign this to traits2.

traits2 <- traits |> 
  semi_join(ranks2, by = "breed")

Use a filtering join to return the subset of traits that excludes the breeds in ranks2.

traits |> 
  anti_join(ranks2, by = "breed")

# A tibble: 178 × 8
   breed            affectionate children other_dogs shedding grooming coat_type
   <chr>                   <dbl>    <dbl>      <dbl>    <dbl>    <dbl> <chr>    
 1 Retrievers (Lab…            5        5          5        4        2 Double   
 2 French Bulldogs             5        5          4        3        1 Smooth   
 3 German Shepherd…            5        5          3        4        2 Double   
 4 Retrievers (Gol…            5        5          5        4        2 Double   
 5 Bulldogs                    4        3          3        3        3 Smooth   
 6 Poodles                     5        5          3        1        4 Curly    
 7 Beagles                     3        5          5        3        2 Smooth   
 8 Rottweilers                 5        3          3        3        1 Smooth   
 9 Pointers (Germa…            5        5          4        3        2 Smooth   
10 Dachshunds                  5        3          4        2        2 Smooth   
# ℹ 168 more rows
# ℹ 1 more variable: coat_length <chr>

Now we want to filter traits based on breeds in popularity. Notice that the breeds column in popularity is called Breed. This is problematic because the breed column in traits is called breed and names are case-sensitive. Use join_by() to filter traits by breeds in popularity. How many rows are there?

traits |> 
  semi_join(popularity, by = join_by(breed == Breed))

# A tibble: 195 × 8
   breed            affectionate children other_dogs shedding grooming coat_type
   <chr>                   <dbl>    <dbl>      <dbl>    <dbl>    <dbl> <chr>    
 1 Retrievers (Lab…            5        5          5        4        2 Double   
 2 French Bulldogs             5        5          4        3        1 Smooth   
 3 German Shepherd…            5        5          3        4        2 Double   
 4 Retrievers (Gol…            5        5          5        4        2 Double   
 5 Bulldogs                    4        3          3        3        3 Smooth   
 6 Poodles                     5        5          3        1        4 Curly    
 7 Beagles                     3        5          5        3        2 Smooth   
 8 Rottweilers                 5        3          3        3        1 Smooth   
 9 Pointers (Germa…            5        5          4        3        2 Smooth   
10 Dachshunds                  5        3          4        2        2 Smooth   
# ℹ 185 more rows
# ℹ 1 more variable: coat_length <chr>

Use filter() (not joins) to return the subset of traits that excludes the breeds in ranks2.

traits |> 
  filter(!breed %in% ranks2$breed)

# A tibble: 178 × 8
   breed            affectionate children other_dogs shedding grooming coat_type
   <chr>                   <dbl>    <dbl>      <dbl>    <dbl>    <dbl> <chr>    
 1 Retrievers (Lab…            5        5          5        4        2 Double   
 2 French Bulldogs             5        5          4        3        1 Smooth   
 3 German Shepherd…            5        5          3        4        2 Double   
 4 Retrievers (Gol…            5        5          5        4        2 Double   
 5 Bulldogs                    4        3          3        3        3 Smooth   
 6 Poodles                     5        5          3        1        4 Curly    
 7 Beagles                     3        5          5        3        2 Smooth   
 8 Rottweilers                 5        3          3        3        1 Smooth   
 9 Pointers (Germa…            5        5          4        3        2 Smooth   
10 Dachshunds                  5        3          4        2        2 Smooth   
# ℹ 168 more rows
# ℹ 1 more variable: coat_length <chr>

Append traits2 to the bottom of itself.

bind_rows(traits2, traits2)

# A tibble: 38 × 8
   breed            affectionate children other_dogs shedding grooming coat_type
   <chr>                   <dbl>    <dbl>      <dbl>    <dbl>    <dbl> <chr>    
 1 Yorkshire Terri…            5        5          3        1        5 Silky    
 2 Miniature Schna…            5        5          3        3        4 Wiry     
 3 Cane Corso                  4        3          3        2        1 Smooth   
 4 Weimaraners                 5        5          3        3        2 Smooth   
 5 Bullmastiffs                4        3          3        3        1 Smooth   
 6 Scottish Terrie…            5        3          2        2        3 Wiry     
 7 Chinese Shar-Pei            4        3          3        3        1 Smooth   
 8 Cardigan Welsh …            4        4          3        3        2 Double   
 9 Lhasa Apsos                 5        3          3        1        3 Silky    
10 Coton de Tulear             5        5          5        2        4 Double   
# ℹ 28 more rows
# ℹ 1 more variable: coat_length <chr>
…
